{
  "builder_name": "json",
  "citation": "",
  "config_name": "default",
  "dataset_size": 133281803,
  "description": "",
  "download_checksums": {
    "/storage/hw56/bible_style_transfer/resource/bible_corpus/bible_train.jsonl": {
      "num_bytes": 120530613,
      "checksum": "a9861edb35dcb450e93a1daf50b9c8f74ceef2fb3edf0977ccdef5460772f2fa"
    },
    "/storage/hw56/bible_style_transfer/resource/bible_corpus/bible_validation.jsonl": {
      "num_bytes": 7466337,
      "checksum": "056d1c211878517890055e50db9e8293f71b7d5b92789772ae2e97d21ab53150"
    },
    "/storage/hw56/bible_style_transfer/resource/bible_corpus/bible_test.jsonl": {
      "num_bytes": 9183878,
      "checksum": "da4c9d8c9eb5781ee4a8df5b43a60d80aed7d9090081acf441f233ca52cc9de3"
    }
  },
  "download_size": 137180828,
  "features": {
    "translation": {
      "DRA": {
        "dtype": "string",
        "id": null,
        "_type": "Value"
      },
      "NCV": {
        "dtype": "string",
        "id": null,
        "_type": "Value"
      },
      "CEV": {
        "dtype": "string",
        "id": null,
        "_type": "Value"
      },
      "MSG": {
        "dtype": "string",
        "id": null,
        "_type": "Value"
      },
      "TLB": {
        "dtype": "string",
        "id": null,
        "_type": "Value"
      },
      "NET": {
        "dtype": "string",
        "id": null,
        "_type": "Value"
      },
      "ERV": {
        "dtype": "string",
        "id": null,
        "_type": "Value"
      },
      "ICB": {
        "dtype": "string",
        "id": null,
        "_type": "Value"
      },
      "HCSB": {
        "dtype": "string",
        "id": null,
        "_type": "Value"
      },
      "WEB": {
        "dtype": "string",
        "id": null,
        "_type": "Value"
      },
      "NLT": {
        "dtype": "string",
        "id": null,
        "_type": "Value"
      },
      "NIRV": {
        "dtype": "string",
        "id": null,
        "_type": "Value"
      },
      "NABRE": {
        "dtype": "string",
        "id": null,
        "_type": "Value"
      },
      "NOG": {
        "dtype": "string",
        "id": null,
        "_type": "Value"
      },
      "RSV": {
        "dtype": "string",
        "id": null,
        "_type": "Value"
      },
      "NRSV": {
        "dtype": "string",
        "id": null,
        "_type": "Value"
      },
      "KJ21": {
        "dtype": "string",
        "id": null,
        "_type": "Value"
      },
      "LEB": {
        "dtype": "string",
        "id": null,
        "_type": "Value"
      },
      "NKJV": {
        "dtype": "string",
        "id": null,
        "_type": "Value"
      },
      "ASV": {
        "dtype": "string",
        "id": null,
        "_type": "Value"
      },
      "NLV": {
        "dtype": "string",
        "id": null,
        "_type": "Value"
      },
      "KJV": {
        "dtype": "string",
        "id": null,
        "_type": "Value"
      },
      "YLT": {
        "dtype": "string",
        "id": null,
        "_type": "Value"
      },
      "CEB": {
        "dtype": "string",
        "id": null,
        "_type": "Value"
      },
      "MEV": {
        "dtype": "string",
        "id": null,
        "_type": "Value"
      },
      "GW": {
        "dtype": "string",
        "id": null,
        "_type": "Value"
      },
      "JUB": {
        "dtype": "string",
        "id": null,
        "_type": "Value"
      },
      "ESV": {
        "dtype": "string",
        "id": null,
        "_type": "Value"
      },
      "NIV": {
        "dtype": "string",
        "id": null,
        "_type": "Value"
      },
      "BBE": {
        "dtype": "string",
        "id": null,
        "_type": "Value"
      },
      "DARBY": {
        "dtype": "string",
        "id": null,
        "_type": "Value"
      },
      "ISV": {
        "dtype": "string",
        "id": null,
        "_type": "Value"
      },
      "GNT": {
        "dtype": "string",
        "id": null,
        "_type": "Value"
      }
    }
  },
  "homepage": "",
  "license": "",
  "post_processed": null,
  "post_processing_size": null,
  "size_in_bytes": 270462631,
  "splits": {
    "train": {
      "name": "train",
      "num_bytes": 117132500,
      "num_examples": 11633,
      "dataset_name": "json"
    },
    "validation": {
      "name": "validation",
      "num_bytes": 7241218,
      "num_examples": 734,
      "dataset_name": "json"
    },
    "test": {
      "name": "test",
      "num_bytes": 8908085,
      "num_examples": 909,
      "dataset_name": "json"
    }
  },
  "supervised_keys": null,
  "task_templates": null,
  "version": {
    "version_str": "0.0.0",
    "description": null,
    "major": 0,
    "minor": 0,
    "patch": 0
  }
}